1 - default
2 - default
4 - default
7 - default
9 - default
11 - default
13 - default
15 - default
17 - default
19 - default
22 - default
24 - default
25 - default
26 - 1 line
29 - 2 line
32 - default
33 - default
35 - default
37 - default
38 - default
40 - default
42 - default
44 - default
46 - default
48 - default
50 - default
51 - default
52 - 1 line
55 - 2 line
59 - default
61 - default
62 - default
64 - default
67 - default
69 - default
70 - default
72 - default
75 - default
77 - default
79 - default
81 - default
83 - default
85 - default
86 - default
87 - default
89 - default
92 - default
94 - default
95 - default
96 - default
97 - default
99 - default
101 - default
102 - default
103 - default
105 - default
107 - default
110 - default
112 - default
113 - default
115 - default
117 - default
118 - default
119 - default
120 - default
122 - default
124 - default
125 - default
127 - default
129 - default
130 - default
132 - default
134 - default
135 - default
136 - default
137 - default
138 - default
140 - default
142 - default
143 - default
145 - default
148 - default
150 - default
152 - default
153 - default
154 - default
156 - default
157 - default
159 - default
161 - default
162 - default
164 - default
166 - default
167 - default
170 - default
172 - default
174 - default
177 - default
179 - default
181 - default
182 - default
183 - default
185 - default
188 - default
190 - default
192 - default
194 - default
195 - default
196 - default
198 - default
200 - default
202 - default
204 - default
206 - default
209 - default
211 - default
213 - default
215 - default
216 - default
218 - default
219 - default
220 - default
222 - default
224 - default
226 - default
228 - default
229 - default
230 - default
231 - default
232 - default
234 - default
236 - default
237 - default
239 - default
241 - default
242 - default
243 - default
245 - default
247 - default
248 - default
249 - default
250 - default
252 - default
254 - default
256 - 1 line
260 - 2 line
263 - default
264 - default
265 - default
266 - default
268 - default
270 - default
272 - default
274 - default
275 - default
277 - default
280 - default
282 - default
283 - default
284 - default
285 - default
287 - default
289 - default
290 - default
292 - default
295 - default
297 - default
298 - default
300 - default
302 - default
304 - default
306 - default
308 - default
311 - default
313 - default
315 - default
317 - default
318 - default
319 - default
321 - default
323 - default
324 - default
325 - default
326 - default
327 - default
329 - default
331 - default
334 - default
336 - default
338 - default
341 - default
343 - 1 line
346 - 2 line
350 - default
353 - default
355 - default
357 - default
360 - default
362 - default
364 - default
367 - default
369 - default
370 - default
372 - default
374 - default
376 - default
378 - default
380 - default
382 - default
383 - default
385 - default
387 - default
389 - default
391 - default
392 - default
393 - default
394 - default
396 - default
399 - default
401 - default
403 - default
405 - default
407 - default
410 - default
412 - default
414 - default
416 - default
417 - default
419 - default
421 - default
423 - default
425 - default
426 - default
428 - default
430 - default
431 - default
433 - default
436 - default
438 - default
439 - default
440 - default
441 - default
442 - default
443 - default
444 - default
445 - default
446 - default
447 - default
448 - default
450 - default
452 - default
453 - default
455 - default
456 - default
458 - default
460 - default
461 - default
462 - default
463 - default
464 - default
466 - default
469 - default
471 - default
472 - default
474 - default
476 - default
478 - default
480 - default
482 - default
484 - default
485 - default
487 - default
490 - 1 line
494 - 2 line
497 - default
498 - default
499 - default
500 - default
502 - default
504 - default
506 - default
509 - default
511 - default
512 - default
513 - default
514 - default
515 - default
516 - default
517 - default
519 - default
522 - default
524 - default
525 - default
527 - default
529 - default
531 - default
533 - default
535 - default
537 - default
539 - default
542 - default
544 - default
545 - default
547 - default
549 - default
551 - default
553 - default
554 - default
555 - default
557 - default
559 - default
561 - default
563 - default
564 - default
566 - default
568 - default
569 - default
571 - default
573 - default
574 - default
575 - default
576 - default
578 - default
580 - default
581 - default
582 - default
584 - default
585 - default
587 - default
590 - default
592 - default
594 - default
596 - default
597 - default
599 - default
602 - default
604 - default
606 - default
607 - default
609 - default
611 - default
613 - default
615 - default
617 - default
620 - default
622 - default
623 - default
625 - default
627 - default
629 - default
632 - default
634 - default
635 - default
637 - default
639 - default
641 - default
642 - default
644 - 1 line
648 - 2 line
651 - default
652 - default
654 - default
656 - default
657 - default
658 - default
659 - default
661 - default
662 - default
663 - default
664 - default
665 - default
666 - default
667 - default
668 - default
671 - default
673 - default
675 - default
677 - default
679 - default
681 - default
682 - default
683 - default
685 - default
687 - default
688 - default
690 - default
692 - default
693 - default
695 - default
697 - default
699 - default
702 - default
704 - default
706 - default
708 - default
709 - default
711 - default
713 - default
714 - default
715 - default
716 - default
717 - default
718 - default
720 - default
722 - default
724 - default
726 - default
728 - default
730 - default
732 - default
734 - default
736 - default
737 - default
738 - default
740 - default
742 - default
744 - default
746 - default
748 - default
751 - default
753 - default
754 - default
755 - default
756 - default
758 - default
760 - default
761 - default
763 - default
765 - default
766 - default
767 - default
768 - default
769 - default
771 - default
773 - default
775 - default
777 - default
779 - default
781 - default
783 - default
786 - default
788 - default
790 - default
792 - default
793 - 1 line
796 - 2 line
799 - default
800 - default
801 - default
803 - default
805 - default
807 - default
808 - default
810 - default
813 - default
814 - default
815 - default
816 - default
817 - default
818 - default
820 - default
822 - default
824 - default
827 - default
829 - default
831 - 1 line
834 - 2 line
837 - default
838 - default
840 - default
842 - default
843 - default
844 - default
846 - default
849 - default
851 - default
853 - default
855 - default
857 - default
859 - default
861 - default
864 - default
866 - default
867 - default
869 - default
871 - default
873 - default
875 - default
876 - default
878 - 1 line
881 - 2 line
884 - default
886 - default
888 - default
889 - default
890 - default
891 - default
893 - default
895 - default
897 - default
899 - default
901 - default
904 - default
906 - default
907 - default
908 - default
909 - default
910 - default
911 - default
913 - default
915 - default
916 - 1 line
919 - 2 line
922 - default
923 - default
925 - default
927 - default
928 - default
930 - default
933 - default
934 - default
935 - default
937 - default
939 - default
940 - default
941 - default
943 - default
945 - default
947 - default
948 - default
949 - default
950 - default
952 - default
954 - default
955 - default
957 - default
960 - default
962 - default
963 - default
964 - default
965 - default
966 - default
968 - default
969 - default
970 - default
971 - default
972 - default
973 - default
975 - default
977 - default
979 - default
980 - default
982 - default
985 - default
987 - default
988 - default
989 - default
990 - default
992 - default
995 - default
997 - default
999 - default
1001 - default
1002 - default
1004 - default
1007 - default
1010 - default
1012 - default
1013 - default
1014 - default
1016 - default
1018 - default
1019 - default
1020 - default
1022 - default
1024 - default
1026 - default
1027 - default
1029 - default
1031 - default
1033 - default
1035 - default
1037 - default
1038 - 1 line
1041 - 2 line
1044 - default
1046 - default
1048 - default
1049 - default
1051 - default
1053 - default
1054 - default
1056 - default
1059 - default
1061 - default
1062 - default
1064 - default
1066 - default
1067 - default
1068 - default
1069 - default
1070 - default
1071 - 1 line
1074 - 2 line
1078 - default
1080 - default
1082 - default
1084 - default
1086 - default
1088 - default
1090 - default
1093 - default
1095 - default
1096 - default
1097 - default
1098 - default
1099 - default
1100 - 1 line
1103 - 2 line
1106 - 1 line
1109 - 2 line
1112 - default
1113 - default
1114 - default
1116 - default
1118 - default
1119 - default
1121 - default
1124 - default
1126 - default
1128 - default
1130 - default
1132 - default
1134 - default
1135 - default
1137 - default
1139 - default
1140 - default
1141 - default
1143 - default
1145 - 1 line
1148 - 2 line
1151 - default
1153 - default
1155 - default
1156 - default
1157 - default
1159 - default
1161 - default
1163 - default
1165 - 1 line
1168 - 2 line
1171 - 1 line
1174 - 2 line
1177 - default
1179 - default
1182 - default
1184 - default
1185 - default
1187 - default
1189 - default
1191 - default
1192 - default
1194 - default
1196 - default
1198 - default
1200 - default
1201 - default
1202 - default
1203 - default
1204 - default
1206 - default
1208 - default
1210 - default
1213 - default
1215 - default
1217 - default
1219 - default
1221 - default
1223 - default
1224 - default
1225 - default
1226 - default
1228 - default
1230 - default
1232 - default
1235 - default
1237 - default
1238 - default
1239 - default
1240 - default
1241 - default
1242 - default
1243 - default
1245 - default
1247 - default
1249 - default
1251 - default
1254 - default
1256 - default
1258 - default
1260 - default
1262 - default
1264 - default
1265 - default
1266 - default
1268 - default
1269 - default
1270 - default
1271 - default
1273 - default
1275 - default
1276 - default
1277 - default
1279 - default
1281 - default
1283 - default
1285 - default
1287 - default
1289 - default
1290 - default
1292 - default
1294 - default
1296 - default
1298 - default
1300 - default
1302 - default
1305 - default
1307 - default
1309 - default
1311 - default
1313 - default
1314 - default
1316 - default
1319 - default
1321 - default
1322 - default
1323 - default
1324 - default
1326 - default
1328 - default
1329 - default
1331 - default
1333 - default
1335 - default
1337 - default
1339 - default
1341 - default
1342 - default
1343 - default
1344 - 1 line
1347 - 2 line
1350 - default
1352 - default
1354 - default
1356 - default
1358 - default
1359 - default
1360 - default
1362 - default
1364 - default
1365 - default
1367 - default
1369 - default
1371 - default
1374 - default
1376 - default
1378 - default
1380 - default
1382 - default
1384 - default
1386 - 1 line
1390 - 2 line
1393 - default
1394 - default
1395 - default
1397 - default
1399 - default
1401 - default
1403 - default
1404 - default
1405 - default
1407 - default
1410 - default
1413 - default
1415 - default
1417 - default
1419 - default
1420 - default
1421 - 1 line
1424 - 2 line
1427 - default
1428 - default
1430 - default
1432 - default
1433 - default
1434 - default
1436 - default
1439 - default
1441 - default
1443 - default
1445 - default
1447 - default
1449 - default
1450 - default
1451 - default
1452 - default
1454 - default
1456 - default
1457 - default
1459 - default
1461 - default
1463 - default
1465 - default
1467 - default
1469 - default
1470 - default
1471 - default
1472 - default
1474 - default
1476 - default
1479 - default
1481 - default
1482 - default
1483 - default
1485 - default
1487 - default
1488 - default
1490 - default
1492 - default
1493 - default
1495 - default
1497 - default
1499 - default
1501 - default
1502 - default
1503 - default
1504 - default
1505 - default
1506 - default
1508 - default
1509 - default
1511 - default
1513 - default
1514 - default
1516 - default
1518 - default
1519 - default
1521 - default
1523 - default
1525 - default
1527 - default
1529 - default
1531 - default
1533 - default
1535 - default
1537 - default
1538 - default
1541 - default
1543 - default
1545 - default
1547 - default
1548 - default
1549 - default
1550 - default
1552 - default
1554 - default
1555 - default
1556 - default
1557 - default
1558 - default
1559 - default
1561 - default
1564 - default
1566 - default
1567 - default
1568 - default
1570 - default
1571 - default
1573 - default
1575 - default
1576 - default
1578 - default
1580 - default
1581 - default
1582 - default
1583 - default
1585 - default
1587 - default
1588 - default
1590 - default
1592 - default
1593 - default
1595 - default
1597 - default
1598 - default
1600 - default
1602 - default
1603 - default
1605 - default
1607 - default
1608 - default
1610 - default
1612 - default
1614 - default
1616 - default
1618 - default
1621 - default
1623 - default
1624 - default
1625 - default
1627 - default
1629 - default
1631 - default
1633 - default
1636 - default
1638 - default
1640 - default
1642 - default
1644 - default
1646 - default
1648 - default
1649 - default
1650 - default
1652 - default
1655 - default
1658 - default
1660 - default
1662 - default
1664 - default
1666 - default
1668 - default
1670 - default
1672 - default
1674 - default
1675 - default
1676 - default
1677 - default
1678 - default
1679 - default
1681 - default
1683 - default
1684 - default
1686 - default
1688 - default
1691 - default
1693 - default
1694 - default
1696 - default
1699 - default
1701 - default
1703 - default
1705 - default
1707 - default
1709 - default
1712 - default
1714 - default
1716 - default
1717 - default
1718 - default
1719 - default
1720 - default
1722 - default
1724 - default
1726 - default
1728 - default
1730 - 1 line
1734 - 2 line
1737 - default
1739 - default
1740 - default
1742 - default
1744 - default
1746 - default
1748 - default
1750 - default
1752 - default
1754 - default
1757 - default
1759 - default
1760 - default
1762 - default
1765 - default
1767 - default
1769 - default
1771 - default
1773 - default
1775 - default
1777 - default
1779 - default
1781 - default
1783 - default
1785 - default
1787 - default
1790 - default
1791 - default
1792 - default
1793 - default
1794 - default
1795 - default
1796 - default
1798 - default
1800 - default
1801 - default
1803 - default
1806 - default
1808 - default
1810 - default
1811 - default
1812 - default
1813 - default
1814 - default
1815 - default
1817 - default
1820 - default
1822 - default
1823 - default
1825 - default
1827 - default
1829 - default
1831 - default
1832 - default
1834 - default
1837 - default
1839 - default
1841 - default
1844 - default
1847 - default
1849 - default
1851 - default
1852 - default
1854 - default
1855 - default
1856 - default
1857 - default
1858 - default
1859 - default
1861 - default
1863 - default
1864 - default
1865 - default
1867 - default
1869 - default
1871 - default
1873 - default
1875 - default
1876 - default
1877 - default
1880 - default
1882 - default
1883 - default
1884 - default
1885 - default
1886 - default
1887 - default
1888 - default
1889 - default
1890 - default
1892 - default
1895 - 1 line
1899 - 2 line
1902 - default
1904 - default
1906 - default
1907 - default
1909 - default
1911 - default
1912 - default
1913 - default
1915 - default
1917 - 1 line
1920 - 2 line
1923 - default
1924 - 1 line
1927 - 2 line
1930 - default
1931 - default
1932 - default
1934 - default
1936 - default
1937 - 1 line
1940 - 2 line
1943 - default
1944 - default
1946 - default
1948 - default
1949 - default
1951 - default
1953 - default
1954 - default
1956 - default
1959 - default
1961 - default
1962 - default
1963 - default
1965 - default
1968 - default
1969 - default
1970 - default
1972 - default
1975 - default
1977 - default
1978 - default
1980 - default
1983 - default
1984 - default
1985 - default
1987 - default
1989 - default
1990 - default
1992 - default
1995 - default
1997 - default
1998 - default
2000 - default
2002 - default
2003 - default
2004 - default
2005 - default
2006 - default
2008 - default
2010 - default
2012 - default
2015 - default
2017 - default
2019 - default
2021 - default
2023 - default
2025 - default
2027 - default
2029 - default
2031 - default
2032 - default
2033 - default
2035 - 1 line
2039 - 2 line
2042 - default
2043 - default
2045 - default
2047 - default
2048 - default
2049 - default
2051 - default
2053 - default
2054 - default
2055 - default
2057 - default
2059 - default
2061 - default
2064 - default
2066 - default
2068 - default
2070 - default
2071 - default
2072 - default
2074 - default
2077 - default
2079 - default
2082 - default
2084 - default
2086 - default
2088 - default
2090 - default
2092 - default
2093 - default
2095 - default
2098 - default
2100 - default
2102 - default
2104 - default
2107 - default
2109 - default
2111 - default
2113 - default
2114 - default
2115 - default
2117 - default
2119 - default
2121 - default
2123 - default
2125 - default
2127 - default
2128 - default
2130 - default
2133 - default
2135 - default
2136 - default
2138 - default
2140 - default
2142 - default
2143 - default
2145 - default
2147 - default
2148 - default
2150 - default
2152 - default
2154 - default
2157 - default
2159 - default
2160 - default
2161 - default
2163 - default
2165 - default
2166 - default
2168 - default
2170 - default
2171 - default
2173 - default
2175 - default
2178 - default
2180 - default
2182 - default
2185 - default
2187 - default
2189 - default
2191 - default
2192 - default
2193 - default
2194 - default
2195 - default
2197 - default
2199 - default
2201 - default
2203 - default
2205 - default
2207 - default
2208 - default
2210 - default
2212 - default
2214 - default
2216 - default
2217 - default
2218 - default
2220 - default
2222 - default
2224 - default
2226 - default
2228 - default
2230 - default
2231 - default
2232 - default
2234 - default
2237 - default
2239 - default
2240 - default
2242 - default
2245 - default
2247 - default
2249 - default
2251 - default
2252 - default
2254 - default
2256 - default
2258 - default
2260 - default
2261 - default
2263 - default
2266 - default
2269 - default
2271 - default
2274 - default
2276 - default
2278 - default
2280 - default
2281 - default
2282 - default
2284 - default
2285 - default
2287 - default
2290 - default
2292 - default
2293 - default
2295 - default
2297 - default
2298 - default
2300 - default
2302 - default
2303 - default
2305 - default
2307 - default
2309 - default
2312 - default
2315 - default
2317 - default
2319 - default
2321 - default
2322 - default
2323 - default
2324 - default
2326 - default
2328 - default
2330 - default
2332 - default
2334 - default
2335 - default
2337 - default
2339 - default
2341 - default
2343 - default
2345 - default
2347 - default
2349 - default
2351 - default
2352 - default
2354 - default
2357 - default
2360 - default
2362 - 1 line
2365 - 2 line
2368 - default
2370 - default
2372 - default
2374 - default
2376 - default
2378 - default
2380 - default
2381 - default
2383 - default
2386 - default
2388 - default
2389 - default
2390 - default
2391 - default
2393 - default
2395 - default
2397 - default
2400 - default
2402 - default
2403 - default
2404 - default
2406 - default
2408 - default
2411 - default
2413 - default
2414 - default
2415 - default
2416 - default
2418 - default
2421 - default
2423 - 1 line
2426 - 2 line
2429 - default
2430 - default
2431 - default
2433 - default
2435 - default
2436 - default
2438 - default
2440 - default
2442 - default
2444 - default
2446 - default
2448 - 1 line
2451 - 2 line
2454 - default
2456 - default
2458 - default
2460 - default
2462 - default
2463 - default
2465 - default
2467 - default
2469 - default
2471 - default
2473 - default
2475 - default
2477 - default
2479 - default
2481 - default
2483 - 1 line
2486 - 2 line
2490 - default
2492 - default
2493 - default
2494 - default
2495 - default
2496 - default
2498 - default
2500 - default
2501 - default
2503 - default
2505 - default
2507 - default
2510 - default
2512 - 1 line
2515 - 2 line
2518 - 1 line
2521 - 2 line
2524 - default
2525 - default
2527 - default
2529 - default
2530 - default
2531 - default
2533 - default
2535 - default
2537 - default
2539 - default
2540 - default
2542 - default
2544 - default
2546 - default
2548 - default
2549 - default
